<?xml version="1.0" encoding="UTF-8" standalone="no"?>
<svg width="50px" height="37px" viewBox="0 0 50 37" version="1.1" xmlns="http://www.w3.org/2000/svg" xmlns:xlink="http://www.w3.org/1999/xlink">
    <!-- Generator: Sketch 46.2 (44496) - http://www.bohemiancoding.com/sketch -->
    <title>Group 4</title>
    <desc>Created with Sketch.</desc>
    <defs></defs>
    <g id="Site-Web" stroke="none" stroke-width="1" fill="none" fill-rule="evenodd">
        <g id="Homepage-v2" transform="translate(-1004.000000, -603.000000)" fill="#333333">
            <g id="Services" transform="translate(0.000000, 525.000000)">
                <g id="Group" transform="translate(65.000000, 0.000000)">
                    <g id="item-copy-2" transform="translate(780.000000, 0.000000)">
                        <g id="Group-4" transform="translate(159.000000, 78.000000)">
                            <path d="M0,2 L50,2 L50,37 L0,37 L0,2 Z M47.6871357,34.6930473 L47.6871357,4.18198375 C36.3841812,4.18198375 2.33121305,4.1819836 2.33121305,4.18198375 C2.33121305,4.18198382 2.33121305,34.5517459 2.33121305,34.5517459 C4.16409941,33.7440383 7.58622727,32.6527014 10.6742727,31.7363 C10.9128182,31.6604017 10.9528864,31.6472835 10.9528864,30.5809596 C10.9528864,29.4340523 10.8224318,28.6216597 10.5438182,28.0257176 C10.1617727,27.210514 9.70984091,25.8396599 9.54956818,24.6093583 C9.09484091,24.0808814 8.47797727,23.0370458 8.08288636,21.0486984 C7.73345455,19.296479 7.89745455,18.6593083 8.12668182,18.0605552 C8.15184091,17.9977752 8.17793182,17.9349951 8.19563636,17.8647189 C8.28136364,17.4618022 8.16302273,15.3272803 7.86297727,13.6696995 C7.65704545,12.5340364 7.91609091,10.1174728 9.47129545,8.11881822 C10.4543636,6.85478398 12.3366364,5.30402293 15.7126136,5.08944633 L17.5958182,5.08757229 C21.0305,5.30402293 22.9099773,6.85478398 23.8930455,8.11881822 C25.4491818,10.1174728 25.7072955,12.5340364 25.5022955,13.6706365 C25.2031818,15.3272803 25.0829773,17.4618022 25.1705682,17.8731521 C25.1892045,17.9349951 25.2143636,17.9977752 25.2376591,18.0605552 C25.46875,18.6593083 25.6308864,19.296479 25.2833182,21.0486984 C24.8863636,23.0370458 24.2695,24.0808814 23.8166364,24.6093583 C23.6545,25.8396599 23.2035,27.210514 22.8233182,28.0257176 C22.4720227,28.7753302 22.1114091,29.6626841 22.1114091,30.5425419 C22.1114091,31.6088658 22.1514773,31.6219841 22.4058636,31.7025674 C24.0351144,32.1861456 32.0655957,34.6930473 32.0655957,34.6930473 C32.0655957,34.6930473 47.6871357,34.6930473 47.6871357,34.6930473 Z M33.9953976,23 L42.0046024,23 C42.5443356,23 43,23.4477153 43,24 C43,24.5561352 42.5543453,25 42.0046024,25 L33.9953976,25 C33.4556644,25 33,24.5522847 33,24 C33,23.4438648 33.4456547,23 33.9953976,23 Z M33.0024733,18 L42.9975267,18 C43.544239,18 44,18.4477153 44,19 C44,19.5561352 43.5511774,20 42.9975267,20 L33.0024733,20 C32.455761,20 32,19.5522847 32,19 C32,18.4438648 32.4488226,18 33.0024733,18 Z M16,0 L34,0 L34,2 L16,2 L16,0 Z" id="ID_card_F"></path>
                        </g>
                    </g>
                </g>
            </g>
        </g>
    </g>
</svg>