<?xml version="1.0" encoding="UTF-8" standalone="no"?>
<svg width="101px" height="42px" viewBox="0 0 101 42" version="1.1" xmlns="http://www.w3.org/2000/svg" xmlns:xlink="http://www.w3.org/1999/xlink">
    <!-- Generator: Sketch 46.2 (44496) - http://www.bohemiancoding.com/sketch -->
    <title>Group 3</title>
    <desc>Created with Sketch.</desc>
    <defs></defs>
    <g id="Site-Web" stroke="none" stroke-width="1" fill="none" fill-rule="evenodd">
        <g id="Homepage-v2" transform="translate(-577.000000, -600.000000)" fill="#333333">
            <g id="Services" transform="translate(0.000000, 525.000000)">
                <g id="Group" transform="translate(65.000000, 0.000000)">
                    <g id="item-copy" transform="translate(390.000000, 0.000000)">
                        <g id="Group-3" transform="translate(122.000000, 75.000000)">
                            <path d="M1.99729162,5 C0.894217919,5 0,5.89989752 0,6.99124431 L0,31.0087557 C0,32.1084896 0.894514396,33 1.9940617,33 L16.0000114,33 L16.0000114,39.0000877 L23.9997501,39.0000877 L23.9997501,33 L38.0059086,33 C39.1072149,33 40,32.1001025 40,31.0087557 L40,6.99124431 C40,5.89151044 39.1084602,5 38.0027084,5 L1.99729162,5 Z M13.0008717,39 L26.9991283,39 C27.5553691,39 28,39.4477153 28,40 C28,40.5561352 27.5518945,41 26.9991283,41 L13.0008717,41 C12.4446309,41 12,40.5522847 12,40 C12,39.4438648 12.4481055,39 13.0008717,39 Z M2,7 L38,7 L38,27 L2,27 L2,7 Z M18,33 L22,33 L22,39 L18,39 L18,33 Z M20,31 C20.5522848,31 21,30.5522848 21,30 C21,29.4477152 20.5522848,29 20,29 C19.4477152,29 19,29.4477152 19,30 C19,30.5522848 19.4477152,31 20,31 Z" id="iMac_L"></path>
                            <path d="M46.991617,0 L73.008383,0 C74.1021596,0 75,0.894307712 75,1.99749218 L75,40.0025078 C75,41.1033397 74.1083227,42 73.008383,42 L46.991617,42 C45.8978404,42 45,41.1056923 45,40.0025078 L45,1.99749218 C45,0.896660339 45.8916773,0 46.991617,0 Z M47,2 L47,37 L73,37 L73,2 L47,2 Z M60,40 C60.5522848,40 61,39.5522848 61,39 C61,38.4477152 60.5522848,38 60,38 C59.4477152,38 59,38.4477152 59,39 C59,39.5522848 59.4477152,40 60,40 Z" id="iPad_L"></path>
                            <path d="M83.008788,0 L97.991212,0 C99.6544098,0 101,1.34234735 101,2.99821673 L101,38.0017833 C101,39.6591666 99.6529197,41 97.991212,41 L83.008788,41 C81.3455902,41 80,39.6576526 80,38.0017833 L80,2.99821673 C80,1.34083335 81.3470803,0 83.008788,0 Z M82,4 L82,35 L99,35 L99,4 L82,4 Z M89.495389,2 C89.2217932,2 89,2.23193359 89,2.5 C89,2.77614237 89.2157526,3 89.495389,3 L91.504611,3 C91.7782068,3 92,2.76806641 92,2.5 C92,2.22385763 91.7842474,2 91.504611,2 L89.495389,2 Z M90.5,39 C91.3284272,39 92,38.3284272 92,37.5 C92,36.6715728 91.3284272,36 90.5,36 C89.6715728,36 89,36.6715728 89,37.5 C89,38.3284272 89.6715728,39 90.5,39 Z" id="iPhone_L"></path>
                        </g>
                    </g>
                </g>
            </g>
        </g>
    </g>
</svg>